A [dead]
B BritCol
C [dead]
D Delaware
E Yukon
F [dead]
G Georgia
H Hawaii
I [dead]
K Kansas
L Louisiana
M [dead]
N [dead]
O [dead]
P Pennsylvania
R RhodeIsland
S SouthDakota
T Texas
U [dead]
V Vermont
W Washington
Y Utah
